Introdução à análise de dados no R - Transformando dados
…
Ordenando as linhas

A base atual está ordada por trimestre e código da unidade da federação. Para facilitar a análise, podemos ordenar as linhas segundo a proporção de desocupação calculada no passo anterior, usando a função arrange():

arrange(
  # base de dados
  dados_com_proporcao,
  # colunas que queremos usar ordenar
  prop_desocupacao
)

# A tibble: 1,350 × 10
   uf             uf_codigo trimestre         trimestre_codigo mil_pessoas_total
   <chr>          <fct>     <chr>             <fct>                        <dbl>
 1 Rondônia       11        3º trimestre 2023 202303                        1486
 2 Rondônia       11        2º trimestre 2023 202302                        1483
 3 Mato Grosso    51        3º trimestre 2023 202303                        2827
 4 Santa Catarina 42        4º trimestre 2013 201304                        5371
 5 Santa Catarina 42        4º trimestre 2012 201204                        5283
 6 Santa Catarina 42        4º trimestre 2014 201404                        5478
 7 Santa Catarina 42        2º trimestre 2014 201402                        5429
 8 Santa Catarina 42        3º trimestre 2013 201303                        5343
 9 Santa Catarina 42        3º trimestre 2014 201403                        5459
10 Mato Grosso    51        2º trimestre 2023 202302                        2799
# ℹ 1,340 more rows
# ℹ 5 more variables: mil_pessoas_forca_de_trabalho <dbl>,
#   mil_pessoas_forca_de_trabalho_ocupada <dbl>,
#   mil_pessoas_forca_de_trabalho_desocupada <dbl>,
#   mil_pessoas_fora_da_forca_de_trabalho <dbl>, prop_desocupacao <dbl>

A função arrange() ordena, por padrão, de forma crescente. Podemos ordenar de forma decrescente, utilizando a função desc() junto à coluna que queremos ordenar de forma decrescente:

arrange(
  # base de dados
  dados_com_proporcao,
  # colunas que queremos usar ordenar
  desc(prop_desocupacao)
)

# A tibble: 1,350 × 10
   uf         uf_codigo trimestre         trimestre_codigo mil_pessoas_total
   <chr>      <fct>     <chr>             <fct>                        <dbl>
 1 Pernambuco 26        2º trimestre 2021 202102                        7570
 2 Amapá      16        2º trimestre 2018 201802                         602
 3 Bahia      29        1º trimestre 2021 202101                       11965
 4 Amapá      16        1º trimestre 2018 201801                         597
 5 Pernambuco 26        1º trimestre 2021 202101                        7548
 6 Bahia      29        3º trimestre 2020 202003                       11993
 7 Sergipe    28        3º trimestre 2020 202003                        1835
 8 Bahia      29        4º trimestre 2020 202004                       12004
 9 Sergipe    28        1º trimestre 2021 202101                        1848
10 Bahia      29        2º trimestre 2020 202002                       11870
# ℹ 1,340 more rows
# ℹ 5 more variables: mil_pessoas_forca_de_trabalho <dbl>,
#   mil_pessoas_forca_de_trabalho_ocupada <dbl>,
#   mil_pessoas_forca_de_trabalho_desocupada <dbl>,
#   mil_pessoas_fora_da_forca_de_trabalho <dbl>, prop_desocupacao <dbl>
…
