Introdução à análise de dados no R - Análise exploratória de dados
…
A grande vantagem da função summarise() é que podemos calcular estatísticas descritivas para grupos de dados, o que veremos a seguir.

Agrupando dados (group_by())

Imagine que queremos calcular a média da taxa de desemprego para cada estado. Para isso, precisaríamos agrupar a base de dados por cada estado.

A função group_by() do pacote dplyr permite agrupar dados usando uma ou mais variáveis. Ela não faz alterações nas linhas e colunas da base de dados, porém ela cria um atributo que indica que a base de dados está agrupada. Assim, as etapas seguintes que utilizarem a base de dados agrupada irão considerar os grupos criados.

Veja o exemplo a seguir: ao agrupar a base dados por uf, estamos criando grupos de dados para cada estado. Veja que o resultado é uma tibble, mas a diferença é que agora temos um grupo para cada estado (# Groups:   uf [27]):

dados |> 
  group_by(uf)

# A tibble: 1,350 × 16
# Groups:   uf [27]
   uf                 uf_codigo uf_sigla regiao trimestre trimestre_codigo   ano
   <chr>              <fct>     <chr>    <chr>  <chr>     <chr>            <dbl>
 1 Amapá              16        AP       Norte  1º trime… 201201            2012
 2 Bahia              29        BA       Norde… 1º trime… 201201            2012
 3 Rio Grande do Nor… 24        RN       Norde… 1º trime… 201201            2012
 4 Alagoas            27        AL       Norde… 1º trime… 201201            2012
 5 Amazonas           13        AM       Norte  1º trime… 201201            2012
 6 Sergipe            28        SE       Norde… 1º trime… 201201            2012
 7 Paraíba            25        PB       Norde… 1º trime… 201201            2012
 8 Pernambuco         26        PE       Norde… 1º trime… 201201            2012
 9 Acre               12        AC       Norte  1º trime… 201201            2012
10 Distrito Federal   53        DF       Centr… 1º trime… 201201            2012
# ℹ 1,340 more rows
# ℹ 9 more variables: trimestre_inicio <date>, mil_pessoas_total <dbl>,
#   mil_pessoas_forca_de_trabalho <dbl>,
#   mil_pessoas_forca_de_trabalho_ocupada <dbl>,
#   mil_pessoas_forca_de_trabalho_desocupada <dbl>,
#   mil_pessoas_fora_da_forca_de_trabalho <dbl>, prop_desocupacao <dbl>,
#   perc_desocupacao <dbl>, periodo_pandemia <dbl>

Podemos agrupar também usando mais que uma variável. Neste exemplo, vamos agrupar por uf e ano: uf, ano [351]. Isso significa que temos um grupo para cada combinação de estado (27) e ano (13), totalizando 351 grupos.

dados |> 
  group_by(uf, ano)

# A tibble: 1,350 × 16
# Groups:   uf, ano [351]
   uf                 uf_codigo uf_sigla regiao trimestre trimestre_codigo   ano
   <chr>              <fct>     <chr>    <chr>  <chr>     <chr>            <dbl>
 1 Amapá              16        AP       Norte  1º trime… 201201            2012
 2 Bahia              29        BA       Norde… 1º trime… 201201            2012
 3 Rio Grande do Nor… 24        RN       Norde… 1º trime… 201201            2012
 4 Alagoas            27        AL       Norde… 1º trime… 201201            2012
 5 Amazonas           13        AM       Norte  1º trime… 201201            2012
 6 Sergipe            28        SE       Norde… 1º trime… 201201            2012
 7 Paraíba            25        PB       Norde… 1º trime… 201201            2012
 8 Pernambuco         26        PE       Norde… 1º trime… 201201            2012
 9 Acre               12        AC       Norte  1º trime… 201201            2012
10 Distrito Federal   53        DF       Centr… 1º trime… 201201            2012
# ℹ 1,340 more rows
# ℹ 9 more variables: trimestre_inicio <date>, mil_pessoas_total <dbl>,
#   mil_pessoas_forca_de_trabalho <dbl>,
#   mil_pessoas_forca_de_trabalho_ocupada <dbl>,
#   mil_pessoas_forca_de_trabalho_desocupada <dbl>,
#   mil_pessoas_fora_da_forca_de_trabalho <dbl>, prop_desocupacao <dbl>,
#   perc_desocupacao <dbl>, periodo_pandemia <dbl>
…
Agora que sabemos como agrupar dados, podemos calcular estatísticas descritivas para cada grupo.

Exemplo com um grupo

dados |> 
  group_by(uf) |>
  summarise(
    minimo = min(perc_desocupacao),
    media = mean(perc_desocupacao),
    mediana = median(perc_desocupacao),
    maximo = max(perc_desocupacao),
    amplitude = maximo - minimo
  )

# A tibble: 27 × 6
   uf               minimo media mediana maximo amplitude
   <chr>             <dbl> <dbl>   <dbl>  <dbl>     <dbl>
 1 Acre               6.18 11.4    11.1    18.2     12.0 
 2 Alagoas            8.15 13.5    12.6    20.4     12.3 
 3 Amapá              8.88 14.4    14.4    21.7     12.9 
 4 Amazonas           6.82 12.0    12.0    18.0     11.2 
 5 Bahia              9.10 15.0    15.3    21.7     12.6 
 6 Ceará              6.65 10.3    10.3    15.1      8.46
 7 Distrito Federal   8.49 11.5    11.4    15.7      7.19
 8 Espírito Santo     4.50  9.39    9.24   14.7     10.2 
 9 Goiás              3.95  8.39    8.05   13.9      9.91
10 Maranhão           5.59 11.4    10.9    17.5     11.9 
# ℹ 17 more rows
…
Exemplo com mais de um grupo

Podemos utilizar mais que uma variável para agrupar. No exemplo a seguir, vamos agrupar por uf e ano:

dados |> 
  group_by(uf, ano) |>
  summarise(
    media = mean(perc_desocupacao)
  )

`summarise()` has grouped output by 'uf'. You can override using the `.groups`
argument.

# A tibble: 351 × 3
# Groups:   uf [27]
   uf      ano media
   <chr> <dbl> <dbl>
 1 Acre   2012  8.55
 2 Acre   2013  9.06
 3 Acre   2014  7.82
 4 Acre   2015  8.68
 5 Acre   2016 11.0 
 6 Acre   2017 14.3 
 7 Acre   2018 13.8 
 8 Acre   2019 14.7 
 9 Acre   2020 15.4 
10 Acre   2021 15.4 
# ℹ 341 more rows
…
Isso significa que a função summarise() retornou um data frame agrupado por uf. Se quisermos remover o agrupamento, podemos usar o argumento .groups = "drop":

dados |> 
  group_by(uf, ano) |>
  summarise(
    media = mean(perc_desocupacao),
1    .groups = "drop"
  )

1

O argumento .groups = "drop" retorna uma tibble sem grupos.

# A tibble: 351 × 3
   uf      ano media
   <chr> <dbl> <dbl>
 1 Acre   2012  8.55
 2 Acre   2013  9.06
 3 Acre   2014  7.82
 4 Acre   2015  8.68
 5 Acre   2016 11.0 
 6 Acre   2017 14.3 
 7 Acre   2018 13.8 
 8 Acre   2019 14.7 
 9 Acre   2020 15.4 
10 Acre   2021 15.4 
# ℹ 341 more rows

Outra opção é usar a função ungroup():

dados |> 
  group_by(uf, ano) |>
  summarise(
    media = mean(perc_desocupacao)
  ) |> 
  ungroup()

`summarise()` has grouped output by 'uf'. You can override using the `.groups`
argument.

# A tibble: 351 × 3
   uf      ano media
   <chr> <dbl> <dbl>
 1 Acre   2012  8.55
 2 Acre   2013  9.06
 3 Acre   2014  7.82
 4 Acre   2015  8.68
 5 Acre   2016 11.0 
 6 Acre   2017 14.3 
 7 Acre   2018 13.8 
 8 Acre   2019 14.7 
 9 Acre   2020 15.4 
10 Acre   2021 15.4 
# ℹ 341 more rows

Filtros com grupos (group_by() + filter())

Podemos combinar a função group_by() com a função filter() para realizar filtros que respeitem o agrupamento dos dados.

Por exemplo, queremos responder a pergunta: Qual foi período (trimestre) para cada estado onde a taxa de desocupação foi maior?

Para isso, primeiro precisamos agrupar com o estado. A primeira coisa que vem em mente é utilizar a função summarise() e buscar o valor máximo:

dados |> 
  group_by(uf) |> 
  summarise(maximo = max(perc_desocupacao))

# A tibble: 27 × 2
   uf               maximo
   <chr>             <dbl>
 1 Acre               18.2
 2 Alagoas            20.4
 3 Amapá              21.7
 4 Amazonas           18.0
 5 Bahia              21.7
 6 Ceará              15.1
 7 Distrito Federal   15.7
 8 Espírito Santo     14.7
 9 Goiás              13.9
10 Maranhão           17.5
# ℹ 17 more rows
…
Agrupando por estado (uf).

2

Filtrando as linhas que apresentam o maior valor encontrado na coluna perc_desocupacao.

3

Ordenando os dados de forma decrescente, segundo o perc_desocupacao.

4

Selecionando apenas as colunas relevantes para a pergunta.

# A tibble: 27 × 3
# Groups:   uf [27]
   uf                  trimestre         perc_desocupacao
   <chr>               <chr>                        <dbl>
 1 Pernambuco          2º trimestre 2021             21.8
 2 Amapá               2º trimestre 2018             21.7
 3 Bahia               1º trimestre 2021             21.7
 4 Sergipe             3º trimestre 2020             20.8
 5 Alagoas             4º trimestre 2020             20.4
 6 Rio de Janeiro      1º trimestre 2021             19.6
 7 Roraima             3º trimestre 2020             19.1
 8 Acre                1º trimestre 2019             18.2
 9 Amazonas            1º trimestre 2017             18.0
10 Rio Grande do Norte 3º trimestre 2020             17.9
# ℹ 17 more rows

Criando colunas utilizando grupos (group_by() + mutate())

Podemos criar novas colunas utilizando a função mutate().

Podemos utilizar essa pergunta como exemplo: - Qual é a média da taxa de desocupação para cada trimestre?

Podemos fazer calcular a média com a função summarise():

dados |>
  group_by(trimestre) |>
  summarise(media = mean(perc_desocupacao)) 

# A tibble: 50 × 2
   trimestre         media
   <chr>             <dbl>
 1 1º trimestre 2012  8.52
 2 1º trimestre 2013  8.65
 3 1º trimestre 2014  7.54
 4 1º trimestre 2015  8.21
 5 1º trimestre 2016 10.7 
 6 1º trimestre 2017 13.8 
 7 1º trimestre 2018 13.2 
 8 1º trimestre 2019 13.2 
 9 1º trimestre 2020 12.8 
10 1º trimestre 2021 15.1 
# ℹ 40 more rows
…
